{
  "cviceni": {
    "version": {
      "global": "<%= version %>",
      "content": 2
    },
    "katalog": [
      "test",
      "public"
    ],
    "language": "cs",
    "slug": "co-se-stalo-v-zime-1970",
    "nazev": "Co se stalo v zimě 1970?",
    "autor": [
      "Josef Řídký"
    ],
    "klicovaSlova": {
      "rvp": [
        "Československo 70. léta"
      ],
      "koncept": [
        "každodennost"
      ],
      "b4": [
        "příčiny a důsledky"
      ],
      "historylab": [
        "tvoříme"
      ]
    },
    "casovaOsa": {
      "roky": [
        1969,
        1970
      ],
      "epochy": [
        {
          "refId": "czech",
          "obdobi": [
            "Pokus o reformu komunismu",
            "Normalizace"
          ]
        },
        {
          "refId": "world",
          "obdobi": []
        }
      ]
    },
    "anotace": {
      "ucitel": "Cvičení pracuje s úryvky rozhlasového zpravodajství z přelomu let 1969–1970 a propojuje je s informacemi z dobového tisku a fotografií. Žáci se díky nim dozvídají a pandemii hongkongské chřipky a v roli reportérů popisují její vliv na hospodářství a zohledňují perspektivy různých skupin populace. Cílem cvičení je ukázat, že i jednoznačná událost se skládá z více, třeba i protichůdných rovin a že různí lidé ji mohli vnímat různě. Cvičení tak motivuje k empatii s historickými aktéry.",
      "verejna": "V Praze 20 000 nemocných, v Itálii 15 milionů. Je to zpráva z roku 2020, nebo se musíme podívat dál do historie? Poslechněte si rozhlasové nahrávky a zjistěte, co se skrývá pod označením A2 Hongkong a jak to ovlivnilo životy lidí."
    },
    "trvani": 40,
    "obtiznost": "vysoká",
    "funkce": [
      "lupa",
      "cteni",
      "text",
      "audio"
    ],
    "pdf": {
      "doporucenyPostup": "co-se-stalo-v-zime-1970.pdf"
    },
    "uvodniObrazek": "co-se-stalo-v-zime-1970/pic-01-1024h.jpg",
    "id": 109,
    "color": {
      "rgb": {
        "r": 129,
        "g": 129,
        "b": 129
      },
      "hsv": {
        "h": 0,
        "s": 0,
        "v": 50.59
      }
    }
  },
  "slajd": [
    {
      "class": "half-slide-previous",
      "zadani": {
        "hlavni": "Poslechněte si nahrávku a přečtěte novinový článek.",
        "rozsirujici": ""
      },
      "napoveda": {
        "aktivity": [
          "lupa",
          "audio"
        ],
        "text": "Při kliknutí levým tlačítkem do obrazu lupa přiblíží část obrazu ve výřezu."
      },
      "media": {
        "nastaveni": {
          "vzhled": "normalni",
          "layout": "velka-galerie"
        },
        "soubory": [
          {
            "soubor": "co-se-stalo-v-zime-1970/audio-00.mp3",
            "nazev": "Rozhlasové noviny, 3. ledna 1970",
            "popisek": "Zdroj: Archiv ČRo"
          }
        ],
        "galerie": [
          {
            "soubor": "co-se-stalo-v-zime-1970/pic-00-1280w.jpg",
            "popisek": "Zdroj: Rudé právo, 29. prosince 1969"
          }
        ]
      }
    },
    {
      "class": "half-slide-active",
      "zadani": {
        "hlavni": "Co se dělo v ČSSR v zimě roku 1970? Udělejte si poznámky.",
        "rozsirujici": ""
      },
      "napoveda": {
        "aktivity": [
          "text"
        ],
        "text": "Do boxu pro text zapisujete odpověď na otázku, nebo jiný komentář (dle zadání)."
      },
      "uzivatelskyText": {
        "otazky": [
          {
            "id": "otazka-1",
            "zadani": "Představte si, že jste reportéři a máte o událostech zimy 1970 napsat článek. Než se ale pustíte do práce, udělejte si poznámky z archivních materiálů.",
            "instrukce": "Moje poznámky...",
            "minDelka": 10,
            "maxDelka": 300
          }
        ]
      }
    },
    {
      "class": "half-slide-previous",
      "zadani": {
        "hlavni": "Pátrejte, co dalšího se během zimy 1970 přihodilo v ČSSR.",
        "rozsirujici": "Poslechněte si další zvukové záznamy a na fotografiích si prohlédněte, jak v té době zimy vypadaly."
      },
      "napoveda": {
        "aktivity": [
          "audio",
          "lupa"
        ],
        "text": "Při kliknutí levým tlačítkem do obrazu lupa přiblíží část obrazu ve výřezu."
      },
      "media": {
        "nastaveni": {
          "layout": "horizontalni"
        },
        "soubory": [
          {
            "vzhled": "normalni",
            "soubor": "co-se-stalo-v-zime-1970/audio-01.mp3",
            "popisek": "Zdroj: Archiv ČRo",
            "nazev": "V Praze kolabuje doprava, Rozhlasové noviny, 28. prosince 1969"
          },
          {
            "vzhled": "normalni",
            "soubor": "co-se-stalo-v-zime-1970/audio-02.mp3",
            "popisek": "Zdroj: Archiv ČRo",
            "nazev": "Chřipková epidemie pokračuje, Rozhlas povolává studenty na brigády, Rozhlasové noviny, 9. ledna 1970"
          },
          {
            "vzhled": "normalni",
            "soubor": "co-se-stalo-v-zime-1970/audio-03.mp3",
            "popisek": "Zdroj: Archiv ČRo",
            "nazev": "Zmrzlé vlaky stojí na kolejích, energetika nemá palivo, Rozhlasové noviny, 9. ledna 1970"
          }
        ]
      },
      "prameny": [
        "co-se-stalo-v-zime-1970/pic-01-1024h.jpg",
        "co-se-stalo-v-zime-1970/pic-02-1024h.jpg",
        "co-se-stalo-v-zime-1970/pic-03-1280w.jpg"
      ],
      "popisky": [
        "Sněhová kalamita na Národní třídě v Praze, konec 60. let. Foto Jiří Finda. Zdroj: ČTK",
        "Staroměstské náměstí v Praze, konec 60. let. Foto Jiří Finda. Zdroj: ČTK",
        "Rozmrazovací tunel, elektrárna Mělník, 9. ledna 1962. Foto Jan Tachezy. Zdroj: ČTK"
      ]
    },
    {
      "class": "half-slide-active",
      "zadani": {
        "hlavni": "Které další problémy zima 1970 přinesla a jak mohly souviset s chřipkou?",
        "rozsirujici": ""
      },
      "napoveda": {
        "aktivity": [
          "text"
        ],
        "text": "Do boxu pro text zapisujete odpověď na otázku, nebo jiný komentář (dle zadání)."
      },
      "uzivatelskyText": {
        "otazky": [
          {
            "id": "otazka-2",
            "zadani": "V ruce máte další prameny. Udělejte si opět poznámky pro článek.",
            "instrukce": "Moje poznámky...",
            "minDelka": 10,
            "maxDelka": 500
          }
        ]
      }
    },
    {
      "class": "half-slide-previous",
      "zadani": {
        "hlavni": "Prohlédněte si dobový tisk.",
        "rozsirujici": "Doplňte si představu o tom, co všechno se v zimě 1970 v ČSSR dělo."
      },
      "napoveda": {
        "aktivity": [
          "audio",
          "lupa"
        ],
        "text": "Při kliknutí levým tlačítkem do obrazu lupa přiblíží část obrazu ve výřezu."
      },
      "media": {
        "nastaveni": {
          "layout": "horizontalni"
        },
        "soubory": [
          {
            "vzhled": "normalni",
            "soubor": "co-se-stalo-v-zime-1970/audio-04.mp3",
            "popisek": "Zdroj: Archiv ČRo",
            "nazev": "V Praze kolabuje doprava, Rozhlasové noviny, 28. prosince 1969"
          },
          {
            "vzhled": "normalni",
            "soubor": "co-se-stalo-v-zime-1970/audio-05.mp3",
            "popisek": "Zdroj: Archiv ČRo",
            "nazev": "Chřipková epidemie pokračuje, Rozhlas povolává studenty na brigády, Rozhlasové noviny, 9. ledna 1970"
          },
          {
            "vzhled": "normalni",
            "soubor": "co-se-stalo-v-zime-1970/audio-06.mp3",
            "popisek": "Zdroj: Archiv ČRo",
            "nazev": "Zmrzlé vlaky stojí na kolejích, energetika nemá palivo, Rozhlasové noviny, 9. ledna 1970"
          }
        ]
      },
      "prameny": [
        "co-se-stalo-v-zime-1970/pic-04-1024h.jpg",
        "co-se-stalo-v-zime-1970/pic-05-1024h.jpg",
        "co-se-stalo-v-zime-1970/pic-06-1280w.jpg"
      ],
      "popisky": [
        "Rudé právo, 2. ledna 1970",
        "Rudé právo, 7. ledna 1970",
        "Rudé právo, 5. ledna 1970"
      ]
    },
    {
      "class": "half-slide-active",
      "zadani": {
        "hlavni": "Které další problémy zima 1970 přinesla a jak mohly souviset s chřipkou?",
        "rozsirujici": ""
      },
      "napoveda": {
        "aktivity": [
          "text"
        ],
        "text": "Do boxu pro text zapisujete odpověď na otázku, nebo jiný komentář (dle zadání)."
      },
      "uzivatelskyText": {
        "otazky": [
          {
            "id": "otazka-3",
            "duplikovat": [
              "otazka-2"
            ],
            "zadani": "Doplňte své předchozí reportážní poznámky o nové údaje.",
            "instrukce": "Moje poznámky...",
            "minDelka": 10,
            "maxDelka": 500
          }
        ]
      }
    },
    {
      "zadani": {
        "hlavni": "Napište svůj článek.",
        "rozsirujici": "Vycházejte při psaní článku ze svých poznámek."
      },
      "napoveda": {
        "aktivity": [
          "text"
        ],
        "text": "Do boxu pro text zapisujete odpověď na otázku, nebo jiný komentář (dle zadání)."
      },
      "uzivatelskyText": {
        "layout": "velka-galerie",
        "galerie": [
          {
            "typ": "text",
            "popisek": "Poznámka ze slajdu č.&thinsp;2",
            "duplikovat": [
              "otazka-1"
            ]
          },
          {
            "typ": "text",
            "popisek": "Poznámka ze slajdu č.&thinsp;6",
            "duplikovat": [
              "otazka-3"
            ]
          }
        ],
        "otazky": [
          {
            "id": "otazka-4",
            "zadani": "Zohledněte při psaní, jaký dopad mohly mít události zimy 1970 např. na studenty, lékaře, pracovníky dopravy nebo běžné občany.",
            "instrukce": "Moje reportáž...",
            "minDelka": 10,
            "maxDelka": 999,
            "vyska": 25
          }
        ]
      }
    }
  ]
}
