{
  "cviceni": {
    "version": {
      "global": "<%= version %>",
      "content": 1
    },
    "katalog": [
      "test"
    ],
    "language": "cs",
    "slug": "co-prinesla-zed",
    "nazev": "Co přinesla zeď?",
    "autor": [
      "Petr Sedlák"
    ],
    "klicovaSlova": {
      "rvp": [
        "střetávání západního a východního bloku"
      ],
      "koncept": [
        "každodennost",
        "dějiny ve veřejném prostoru"
      ],
      "b4": [
        "dobové perspektivy"
      ],
      "historylab": [
        "tvoříme"
      ]
    },
    "casovaOsa": {
      "roky": [
        1961
      ],
      "epochy": [
        {
          "refId": "czech",
          "obdobi": []
        },
        {
          "refId": "world",
          "obdobi": [
            "Studená válka a rozpad koloniálních říší"
          ]
        }
      ]
    },
    "anotace": {
      "ucitel": "Cvičení využívá neobyčejnou scénu zachycenou fotografem v jedné z berlínských ulic v srpnu 1961. Analýza snímku nabízí uchopit na výmluvném příkladu situaci, kdy obyvatelé čelili rozdělení Berlína a zažívali odříznutí od svých sociálních kontaktů v druhé části města. V závěru žáci vytváří hypotézy, co si mohli lidé na fotografii o situaci myslet. Cvičením lze otevřít otázku, jaký vliv mohla mít studená válka na život obyčejných lidí.",
      "verejna": "Konec léta 1961 v Berlíně. Ve městě se děje něco neobvyklého. Ulici zahradila zeď a lidé ji nemohou obejít. Ukazují si přes ni dokonce i své děti. Dohledejte příčiny toho, co se stalo. Netýkalo se to jen jedné ulice, ale celého města! Navrhněte, jak událost Berlíňané prožívali."
    },
    "trvani": 25,
    "obtiznost": "střední",
    "funkce": [
      "lupa",
      "cteni",
      "text",
      "svg",
      "znacky"
    ],
    "pdf": {
      "doporucenyPostup": "co-prinesla-zed.pdf"
    },
    "uvodniObrazek": "co-prinesla-zed/pic-00-1280w.jpg",
    "id": 104,
    "color": {
      "rgb": {
        "r": 107,
        "g": 108,
        "b": 103
      },
      "hsv": {
        "h": 72,
        "s": 4.63,
        "v": 42.35
      }
    }
  },
  "slajd": [
    {
      "zadani": {
        "hlavni": "Prohlédněte si fotografii.",
        "rozsirujici": ""
      },
      "napoveda": {
        "aktivity": [
          "lupa"
        ],
        "text": "Při kliknutí levým tlačítkem do obrazu lupa přiblíží část obrazu ve výřezu."
      },
      "prameny": [
        "co-prinesla-zed/pic-00-1280w.jpg"
      ],
      "popisky": [
        "Berlíňané ukazují děti u zdi, srpen 1961. Foto Will McBride.<br>Zdroj: Shawn McBride/Will McBride Archive"
      ]
    },
    {
      "zadani": {
        "hlavni": "Vyznačte na fotografii důležité prvky, které pomohou určit, co se na ní děje.",
        "rozsirujici": ""
      },
      "napoveda": {
        "aktivity": [
          "svg"
        ],
        "text": "Kliknutím na snímek levým tlačítkem myši označujete bod. Nakliknutím na bod pravým tlačítkem otevřete menu s nabídkou úkonů: změnit barvu bodu, (T) doplnit textový komentář, (X) smazat nakliknutý objekt."
      },
      "svg": {
        "soubory": [
          {
            "id": "svg-1",
            "soubor": "co-prinesla-zed/pic-00-1280w.jpg",
            "funkce": [
              "text",
              "znacky"
            ]
          }
        ]
      },
      "popisky": [
        "Berlíňané ukazují děti u zdi, srpen 1961. Foto Will McBride.<br>Zdroj: Shawn McBride/Will McBride Archive"
      ]
    },
    {
      "class": "half-slide-previous",
      "zadani": {
        "hlavni": "Prohlédněte si další prameny.",
        "rozsirujici": "Přečtěte si další prameny. Nově zjištěné informace doplňte do fotografie."
      },
      "napoveda": {
        "aktivity": [
          "svg"
        ],
        "text": "Kliknutím na snímek levým tlačítkem myši označujete bod. Nakliknutím na bod pravým tlačítkem otevřete menu s nabídkou úkonů: změnit barvu bodu, (T) doplnit textový komentář, (X) smazat nakliknutý objekt."
      },
      "svg": {
        "nastaveni": {
          "layout": "velka-galerie"
        },
        "galerie": [
          {
            "soubor": "co-prinesla-zed/pic-02-1024h.jpg",
            "popisek": "Záběr fotografa na skupinu lidí u zdi. Zdroj: Shawn McBride/ Will McBride Archive"
          },
          {
            "soubor": "co-prinesla-zed/pic-01-1024h.jpg",
            "popisek": "Titulky na obálce amerického časopisu Life: „Naše reportáž z Berlína. Roztržené rodiny… Útěky na svobodu… Srdcervoucí scény u ostnatého drátu.” Překlad německého transparentu: „Jsme pobouřeni nečinností! Všechno jen sliby?” Zdroj: Life, 25. srpna 1961"
          },
          {
            "typ": "text",
            "objekt": "Bylo mi 14 let a žil jsem v Německu. Můj otec byl (britský) voják, matka Němka. V naší ulici nikdo neměl televizi; zprávy se šířily mezi lidmi, v novinách, přes telefon. V noci, kdy začala stavba zdi, byla naše rodina doma. Začali jsme slyšet lidi křičet, naříkat, hlasitěji a hlasitěji. Vyšli jsme na ulici a byli svědky paniky a strachu. Sousedé si vzájemně sdělovali (a nám), že mají příbuzné ve východním Berlíně – zkoušeli je kontaktovat, ale nemohli. Nikdo nevěděl, co se vlastně děje. Šířily se zvěsti. Někteří si mysleli, že jejich příbuzní byli zabiti, nebo budou brzy zabiti. Nikde jsem nic takového neviděl. Všichni brečeli. Po nějaké době nám sousedé sdělovali, že si myslí, že jejich milovaní se jim za zdí ztratili nadobro… Jsem si jistý, že některé z těch ,,ztracených“ vztahů opravdu časem zanikly. Ta noc se natrvalo otiskla do mé paměti. Bob Dignan, překlad vzpomínky. Redakčně upraveno. Zdroj: The Guardian online, 7. listopadu 2014"
          }
        ],
        "soubory": [
          {
            "id": "svg-2",
            "soubor": "co-prinesla-zed/pic-00-1280w.jpg",
            "duplikovat": [
              "svg-1"
            ],
            "funkce": [
              "text",
              "znacky"
            ],
            "barvy": [
              "red"
            ]
          }
        ]
      },
      "popisky": [
        "Berlíňané ukazují děti u zdi, srpen 1961. Foto Will McBride. Zdroj: Shawn McBride/Will McBride Archive"
      ]
    },
    {
      "class": "half-slide-active",
      "zadani": {
        "hlavni": "Co si lidé mohli myslet o postavení zdi?",
        "rozsirujici": "Formulujte myšlenky z pohledu zachycených osob. Využijte informace, které jste získali na předchozím slajdu."
      },
      "napoveda": {
        "aktivity": [
          "svg"
        ],
        "text": "Vpisujte kliknutím do bubliny."
      },
      "svg": {
        "soubory": [
          {
            "id": "svg-3",
            "soubor": "co-prinesla-zed/pic-00-1280w.jpg",
            "funkce": [
              "text",
              "znacky"
            ],
            "komiks": [
              {
                "kategorie": "text",
                "subkategorie": "myslenka",
                "label": "lidé na židli",
                "pozice": [
                  50,
                  400
                ]
              },
              {
                "kategorie": "text",
                "subkategorie": "myslenka",
                "label": "lidé s dětmi",
                "pozice": [
                  350,
                  450
                ]
              },
              {
                "kategorie": "text",
                "subkategorie": "myslenka",
                "label": "lidé za zdí",
                "pozice": [
                  650,
                  400
                ]
              },
              {
                "kategorie": "text",
                "subkategorie": "myslenka",
                "label": "lidé vpravo",
                "pozice": [
                  950,
                  450
                ]
              }
            ]
          }
        ]
      }
    }
  ]
}