{
  "cviceni": {
    "version": {
      "global": "<%= version %>",
      "content": 2
    },
    "katalog": [
      "test",
      "public"
    ],
    "language": "cs",
    "slug": "vanocni-zmena",
    "nazev": "Vánoční změna?",
    "autor": [
      "Pavla Sýkorová"
    ],
    "klicovaSlova": {
      "rvp": [
        "Československo 50. léta"
      ],
      "koncept": [
        "propaganda",
        "každodennost"
      ],
      "b4": [
        "vztah k minulosti"
      ],
      "historylab": [
        "sestavujeme podloženou odpověď"
      ]
    },
    "casovaOsa": {
      "roky": [
        1952
      ],
      "epochy": [
        {
          "refId": "czech",
          "obdobi": [
            "poválečná doba a nástup komunismu"
          ]
        },
        {
          "refId": "world",
          "obdobi": []
        }
      ]
    },
    "anotace": {
      "ucitel": "Cvičení je postaveno na projevu Antonína Zápotockého, ve kterém tehdejší předseda vlády vysvětluje, jak se proměňují Vánoce (z Ježíška se stává Děda Mráz, místo betlémské hvězdy svítí rudé hvězdy, …). Žáci proměny zakreslují do obrázku a kladou si přitom otázky: Proč chtěli komunisté změnit Vánoce? Proč změna nebyla úspěšná? Cvičení lze využít pro dokreslení propagandy 50. let, jako ukázku nekritického přijetí sovětské kultury a prolínání veřejné a privátní sféry.",
      "verejna": "Proč potřeboval předseda vlády v roce 1952 zrušit Ježíška? A jak by potom Vánoce vypadaly? Antonín Zápotocký to ve svém projevu osobně vysvětluje. Budete se divit! A navíc se dozvíte něco o padesátých letech přímo z úst budoucího československého prezidenta."
    },
    "trvani": 25,
    "obtiznost": "nízká",
    "funkce": [
      "lupa",
      "svg",
      "znacky",
      "text",
      "audio"
    ],
    "pdf": {
      "doporucenyPostup": "vanocni-zmena.pdf"
    },
    "uvodniObrazek": "vanocni-zmena/pic-01-1280w.jpg",
    "id": 40,
    "color": {
      "rgb": {
        "r": 112,
        "g": 112,
        "b": 112
      },
      "hsv": {
        "h": 0,
        "s": 0,
        "v": 43.92
      }
    }
  },
  "slajd": [
    {
      "class": "half-slide-previous",
      "zadani": {
        "hlavni": "Poslechněte si část vánočního projevu Antonína Zápotockého z roku 1952.",
        "rozsirujici": ""
      },
      "napoveda": {
        "aktivity": [
          "audio",
          "lupa"
        ],
        "text": "Při kliknutí levým tlačítkem do obrazu lupa přiblíží část obrazu ve výřezu."
      },
      "media": {
        "nastaveni": {
          "vzhled": "normalni",
          "layout": "vertikalni"
        },
        "soubory": [
          {
            "soubor": "vanocni-zmena/audio-00.mp3",
            "nazev": "Projev Antonína Zápotockého z 24. prosinec 1952",
            "popisek": "Zdroj: Archiv ČRo"
          }
        ],
        "galerie": [
          {
            "soubor": "vanocni-zmena/pic-00-1024h.jpg",
            "popisek": "Předseda vlády Antonín Zápotocký při projevu do rozhlasu na Štědrý den. V té době byl předsedou vlády a do půl roku prezidentem Československa. Zdroj: ČTK"
          },
          {
            "soubor": "vanocni-zmena/pic-01-1280w.jpg",
            "popisek": "Děda Mráz mezi pražskými pionýry v Průmyslovém paláci v Praze. Zdroj: ČTK"
          }
        ]
      }
    },
    {
      "class": [
        "half-slide-active",
        "half-slide-previous"
      ],
      "zadani": {
        "hlavni": "Vyznačte do obrázku změny, o kterých Antonín Zápotocký mluví, a popište je.",
        "rozsirujici": ""
      },
      "napoveda": {
        "aktivity": [
          "svg"
        ],
        "text": "Kliknutím na snímek levým tlačítkem myši označujete bod. Nakliknutím na bod pravým tlačítkem otevřete menu s nabídkou úkonů: změnit barvu bodu, (T) doplnit textový komentář, (X) smazat nakliknutý objekt."
      },
      "svg": {
        "soubory": [
          {
            "id": "svg-1",
            "soubor": "vanocni-zmena/pic-02-1024h.jpg",
            "funkce": [
              "text",
              "znacky"
            ]
          }
        ]
      },
      "popisky": [
        "Josef Lada: Pokoj lidem dobré vůle, 1938. Zdroj: ČTK"
      ]
    },
    {
      "class": [
        "half-slide-active"
      ],
      "zadani": {
        "hlavni": "Proč chtěli komunisté změnit českou vánoční tradici?",
        "rozsirujici": ""
      },
      "napoveda": {
        "aktivity": [
          "text"
        ],
        "text": "Do boxu pro text zapisujete odpověď na otázku, nebo jiný komentář (dle zadání)."
      },
      "uzivatelskyText": {
        "otazky": [
          {
            "id": "text-1",
            "zadani": "",
            "instrukce": "Myslím si, že…",
            "minDelka": 10,
            "maxDelka": 400
          }
        ]
      }
    },
    {
      "zadani": {
        "hlavni": "Proč se dle vašeho názoru změna vánoční tradice nepovedla?",
        "rozsirujici": "Po pár letech komunisté ustoupili. Ukázalo se, že lidé nechtějí Ježíška vyměnit za Dědu Mráze. Proč se je nepovedlo přesvědčit?"
      },
      "napoveda": {
        "aktivity": [
          "text"
        ],
        "text": "Do boxu pro text zapisujete odpověď na otázku, nebo jiný komentář (dle zadání)."
      },
      "uzivatelskyText": {
        "otazky": [
          {
            "id": "text-2",
            "zadani": "",
            "instrukce": "Myslím si, že…",
            "minDelka": 10,
            "maxDelka": 400
          }
        ]
      }
    }
  ]
}