{
  "cviceni": {
    "version": {
      "global": "<%= version %>",
      "content": 3
    },
    "katalog": [
      "test",
      "public"
    ],
    "language": "cs",
    "slug": "prezident-masaryk-na-fotografii",
    "nazev": "Prezident Masaryk na fotografii",
    "autor": [
      "Kamil Činátl"
    ],
    "klicovaSlova": {
      "rvp": [
        "vznik ČSR"
      ],
      "koncept": [
        "propaganda",
        "symboly"
      ],
      "b4": [
        "vztah k minulosti"
      ],
      "historylab": [
        "domýšlíme významy"
      ]
    },
    "casovaOsa": {
      "roky": [
        1928
      ],
      "epochy": [
        {
          "refId": "czech",
          "obdobi": [
            "první Československá republika"
          ]
        },
        {
          "refId": "world",
          "obdobi": []
        }
      ]
    },
    "anotace": {
      "ucitel": "Cvičení se zaměřuje na práci s aranžovanou fotografií T. G. Masaryka. Pomocí popisu fotografie žáci rozkryjí symbolické významy, které se v československé společnosti spojovaly s funkcí prezidenta republiky. Cvičení podporuje kritickou nedůvěru vůči politickým fotografiím a ukazuje, jak se mohou podílet na vytváření politických významů.",
      "verejna": "Fotograf vytvořil snímek T. G. Masaryka - prvního československého prezidenta. Jak na vás fotogragie působí? Zjistěte, co nám prezident a fotograf chtěli sdělit!"
    },
    "trvani": 15,
    "obtiznost": "nízká",
    "funkce": [
      "lupa",
      "text",
      "svg",
      "kresleni",
      "tagy"
    ],
    "pdf": {
      "doporucenyPostup": "prezident-masaryk-na-fotografii.pdf"
    },
    "uvodniObrazek": "prezident-masaryk-na-fotografii/pic-00-1280w.jpg",
    "id": 17,
    "color": {
      "rgb": {
        "r": 147,
        "g": 129,
        "b": 118
      },
      "hsv": {
        "h": 23,
        "s": 19.73,
        "v": 57.65
      }
    }
  },
  "slajd": [
    {
      "zadani": {
        "hlavni": "Prohlédněte si fotografii.",
        "rozsirujici": ""
      },
      "napoveda": {
        "aktivity": [
          "lupa"
        ],
        "text": "Při kliknutí levým tlačítkem do obrazu lupa přiblíží část obrazu ve výřezu."
      },
      "prameny": [
        "prezident-masaryk-na-fotografii/pic-00-1280w.jpg"
      ],
      "popisky": [
        "Při projížďce na Bílé hoře 1928, foto Tomáš Vojta. Zdroj: Karel Čapek (ed.): Masaryk ve fotografii, Orbis, Praha 1947"
      ],
      "zpetnaVazba": {
        "text": "Mám prohlédnuto!"
      }
    },
    {
      "zadani": {
        "hlavni": "Označte důležité prvky na fotografii a popište je.",
        "rozsirujici": ""
      },
      "napoveda": {
        "aktivity": [
          "svg"
        ],
        "text": "Tahem myši levým tlačítkem kreslíte do obrazu. Nakliknutím na nakreslený tvar pravým tlačítkem otevřete menu s nabídkou úkonů: změnit barvu tvaru, (T) doplnit textový komentář, (X) smazat nakliknutý objekt."
      },
      "svg": {
        "soubory": [
          {
            "id": "svg-1",
            "soubor": "prezident-masaryk-na-fotografii/pic-00-1280w.jpg",
            "funkce": [
              "text",
              "kresleni"
            ]
          }
        ]
      },
      "popisky": [
        "Při projížďce na Bílé hoře 1928, foto Tomáš Vojta. Zdroj: Karel Čapek (ed.): Masaryk ve fotografii, Orbis, Praha 1947"
      ]
    },
    {
      "class": [
        "half-slide-previous"
      ],
      "zadani": {
        "hlavni": "Jakým dojmem prezident na fotografii působí?",
        "rozsirujici": "Vyberte dvě až čtyři charakteristiky z nabídky."
      },
      "napoveda": {
        "aktivity": [
          "razeni",
          "svg"
        ],
        "text": "Pomocí drag and drop přesouvejte položky z nabídky do obrázku."
      },
      "svg": {
        "nastaveni": {
          "layout": "vertikalni"
        },
        "pretahovani": {
          "id": "pretahovani-1",
          "items": [
            {
              "objekt": "bojovný",
              "medium": "tag"
            },
            {
              "objekt": "demokratický",
              "medium": "tag"
            },
            {
              "objekt": "důstojný",
              "medium": "tag"
            },
            {
              "objekt": "důvěryhodný",
              "medium": "tag"
            },
            {
              "objekt": "hrdý",
              "medium": "tag"
            },
            {
              "objekt": "klidný",
              "medium": "tag"
            },
            {
              "objekt": "lidový",
              "medium": "tag"
            },
            {
              "objekt": "mocný",
              "medium": "tag"
            },
            {
              "objekt": "starostlivý",
              "medium": "tag"
            },
            {
              "objekt": "rozvážný",
              "medium": "tag"
            },
            {
              "objekt": "sebevědomý",
              "medium": "tag"
            },
            {
              "objekt": "starý",
              "medium": "tag"
            },
            {
              "objekt": "vědoucí",
              "medium": "tag"
            },
            {
              "objekt": "vůdčí",
              "medium": "tag"
            },
            {
              "objekt": "vzdělaný",
              "medium": "tag"
            },
            {
              "objekt": "vznešený",
              "medium": "tag"
            }
          ]
        },
        "soubory": [
          {
            "id": "svg-2",
            "soubor": "prezident-masaryk-na-fotografii/pic-00-1280w.jpg",
            "duplikovat": [
              "svg-1"
            ],
            "funkce": [
              "text"
            ],
            "drop": true
          }
        ]
      },
      "popisky": [
        "Při projížďce na Bílé hoře 1928, foto Tomáš Vojta. Zdroj: Karel Čapek (ed.): Masaryk ve fotografii, Orbis, Praha 1947"
      ]
    },
    {
      "class": [
        "half-slide-active"
      ],
      "zadani": {
        "hlavni": "Odpovězte na otázky.",
        "rozsirujici": ""
      },
      "napoveda": {
        "aktivity": [
          "text"
        ],
        "text": "Do boxu pro text zapisujete odpověď na otázku, nebo jiný komentář (dle zadání)."
      },
      "uzivatelskyText": {
        "otazky": [
          {
            "id": "text-1",
            "zadani": "Jaké vlastnosti u prezidenta fotografie zdůrazňuje? Zdůvodněte.",
            "instrukce": "Myslím si, že…",
            "minDelka": 10,
            "maxDelka": 400
          },
          {
            "id": "text-2",
            "zadani": "Bylo fotografování předem připraveno? Za jakým účelem byl snímek pořízen?",
            "instrukce": "Myslím si, že…",
            "minDelka": 10,
            "maxDelka": 400
          }
        ]
      }
    }
  ]
}