{
  "cviceni": {
    "version": {
      "global": "<%= version %>",
      "content": 3
    },
    "katalog": [
      "test",
      "public"
    ],
    "language": "cs",
    "slug": "mel-si-kleknout",
    "nazev": "Měl si kleknout?",
    "autor": [
      "Kamil Činátl"
    ],
    "klicovaSlova": {
      "rvp": [
        "důsledky druhé světové války",
        "antisemitismus"
      ],
      "koncept": [
        "vzpomínková kultura",
        "symboly"
      ],
      "b4": [
        "vztah k minulosti"
      ],
      "historylab": [
        "diskutujeme"
      ]
    },
    "casovaOsa": {
      "roky": [
        1970
      ],
      "epochy": [
        {
          "refId": "czech",
          "obdobi": []
        },
        {
          "refId": "world",
          "obdobi": [
            "studená válka a rozpad koloniálních říší"
          ]
        }
      ]
    },
    "anotace": {
      "ucitel": "Cvičení se zaměřuje na ikonické pokleknutí Willyho Brandta před pomníkem povstání ve varšavském ghettu. Žáci využívají různé zdroje, aby diskutovali nad tím, zda si západoněmecký kancléř v roce 1970 měl či neměl před pomníkem kleknout.",
      "verejna": "Německý kancléř klečí v roce 1970 před pomníkem obětí holokaustu ve Varšavě. Jak mohli toto gesto vnímat Němci, Poláci či Židé? Zkuste za pomoci pramenů argumentovat, zda si Willy Brandt měl či neměl kleknout."
    },
    "trvani": 35,
    "obtiznost": "střední",
    "funkce": [
      "lupa",
      "svg",
      "text"
    ],
    "pdf": {
      "doporucenyPostup": "mel-si-kleknout.pdf"
    },
    "uvodniObrazek": "mel-si-kleknout/pic-01-1280w.jpg",
    "id": 68,
    "color": {
      "rgb": {
        "r": 112,
        "g": 112,
        "b": 112
      },
      "hsv": {
        "h": 0,
        "s": 0,
        "v": 43.92
      }
    }
  },
  "slajd": [
    {
      "zadani": {
        "hlavni": "Prohlédněte si fotografii.",
        "rozsirujici": ""
      },
      "napoveda": {
        "aktivity": [
          "lupa"
        ],
        "text": "Při kliknutí levým tlačítkem do obrazu lupa přiblíží část obrazu ve&nbsp;výřezu."
      },
      "prameny": [
        "mel-si-kleknout/pic-01-1280w.jpg"
      ],
      "popisky": [
        "Západoněmecký kancléř Willy Brandt poklekl v roce 1970 při návštěvě Varšavy před pomníkem povstání v tamním ghettu. Brandtovo gesto vyvolalo velkou pozornost a vzbudilo diskuze nejen v Německu a Polsku. Foto Sven Simon. Zdroj: ČTK"
      ]
    },
    {
      "class": "half-slide-previous",
      "zadani": {
        "hlavni": "Označte na fotografii důležité prvky, které pomohou určit, co se na ní děje.",
        "rozsirujici": ""
      },
      "napoveda": {
        "aktivity": [
          "svg"
        ],
        "text": "Kliknutím na snímek levým tlačítkem myši označujete bod. Nakliknutím na bod pravým tlačítkem otevřete menu s nabídkou úkonů: změnit barvu bodu, (T) doplnit textový komentář, (X) smazat nakliknutý objekt."
      },
      "svg": {
        "soubory": [
          {
            "id": "svg-1",
            "soubor": "mel-si-kleknout/pic-01-1024w.jpg",
            "funkce": [
              "text",
              "znacky"
            ]
          }
        ]
      },
      "popisky": [
        "Západoněmecký kancléř Willy Brandt poklekl v roce 1970 při návštěvě Varšavy před pomníkem povstání v tamním ghettu. Brandtovo gesto vyvolalo velkou pozornost a vzbudilo diskuze nejen v Německu a Polsku. Foto Sven Simon. Zdroj: ČTK"
      ]
    },
    {
      "class": [
        "half-slide-active"
      ],
      "zadani": {
        "hlavni": "Co se děje na fotografii?",
        "rozsirujici": ""
      },
      "napoveda": {
        "aktivity": [
          "text"
        ],
        "text": "Do boxu pro text zapisujete odpověď na otázku, nebo jiný komentář (dle zadání)."
      },
      "uzivatelskyText": {
        "otazky": [
          {
            "id": "text-1",
            "zadani": "Kdo jsou lidé na snímku a co dělají?",
            "instrukce": "Myslím si, že…",
            "minDelka": 2,
            "maxDelka": 400
          }
        ]
      }
    },
    {
      "class": [
        "half-slide-previous"
      ],
      "zadani": {
        "hlavni": "Prozkoumejte další prameny. Nově zjištěné informace doplňte do fotografie červeně.",
        "rozsirujici": ""
      },
      "napoveda": {
        "aktivity": [
          "lupa",
          "svg"
        ],
        "text": "Při kliknutí levým tlačítkem do obrazu lupa přiblíží část obrazu ve výřezu."
      },
      "svg": {
        "nastaveni": {
          "layout": "horizontalni"
        },
        "galerie": [
          {
            "soubor": "mel-si-kleknout/pic-03-1024h.jpg",
            "popisek": "Obálka německého časopisu Der Spiegel z 14. prosince 1970. Titulek zní: Anketa Spiegelu. Měl si Brandt kleknout? Zdroj: Der Spiegel"
          },
          {
            "soubor": "mel-si-kleknout/pic-04-1280w.jpg",
            "popisek": "Dva ukrajinští členové SS nad těly Židů zavražděných při povstání ve varšavském ghettu. Zdroj: Polský národní archiv"
          },
          {
            "soubor": "mel-si-kleknout/pic-02-1280w.jpg",
            "popisek": "Nathan Rapoport: Pomník hrdinů ghetta. Pomník připomíná povstání ve varšavském ghettu v roce 1944. Vznikl na místě bývalého ghetta již v roce 1948. Nápis na pomníku: Židovský národ svým mučedníkům a bojovníkům. Foto Adrian Grycuk. Zdroj: Wikimedia Commons"
          },
          {
            "soubor": "mel-si-kleknout/pic-00-1024h.jpg",
            "popisek": "Lucie Suchá: A Německo pokleklo před Polskem. Brandtovo gesto vstoupilo do dějin. Zdroj: iDNES.cz, 8. prosince 2010"
          }
        ],
        "soubory": [
          {
            "id": "svg-2",
            "soubor": "mel-si-kleknout/pic-01-1024w.jpg",
            "funkce": [
              "text",
              "znacky"
            ],
            "barvy": [
              "red"
            ],
            "duplikovat": [
              "svg-1"
            ]
          }
        ]
      },
      "popisky": [
        ""
      ]
    },
    {
      "class": [
        "half-slide-active"
      ],
      "zadani": {
        "hlavni": "Formulujte argumenty pro a proti.",
        "rozsirujici": ""
      },
      "napoveda": {
        "aktivity": [
          "text"
        ],
        "text": "Do boxu pro text zapisujete odpověď na otázku, nebo jiný komentář (dle zadání)."
      },
      "uzivatelskyText": {
        "otazky": [
          {
            "id": "text-2",
            "zadani": "Proč si měl kleknout?",
            "instrukce": "Myslím si, že…",
            "minDelka": 10,
            "optimum": 150,
            "maxDelka": 400
          },
          {
            "id": "text-3",
            "zadani": "Proč si neměl kleknout?",
            "instrukce": "Myslím si, že…",
            "minDelka": 10,
            "optimum": 150,
            "maxDelka": 400
          }
        ]
      }
    }
  ]
}