{
  "cviceni": {
    "version": {
      "global": "<%= version %>",
      "content": 4
    },
    "katalog": [
      "public",
      "test"
    ],
    "language": "cs",
    "slug": "jak-oslavovali-statni-svatek",
    "nazev": "Jak oslavovali státní svátek?",
    "autor": [
      "Jaroslav Najbert"
    ],
    "klicovaSlova": {
      "rvp": [
        "Československo 80. léta"
      ],
      "koncept": [
        "propaganda",
        "dějiny ve veřejném prostoru"
      ],
      "b4": [
        "dobové perspektivy"
      ],
      "historylab": [
        "sestavujeme podloženou odpověď"
      ]
    },
    "casovaOsa": {
      "roky": [
        1980
      ],
      "epochy": [
        {
          "refId": "czech",
          "obdobi": [
            "normalizace"
          ]
        },
        {
          "refId": "world",
          "obdobi": []
        }
      ]
    },
    "anotace": {
      "ucitel": "Cvičení se zaměřuje na analýzu fotografie májových oslav roku 1980 ve východočeském městě Polička. Žáci popisují jednotlivé symboly a prvky výzdoby a uvědomují si, že podrobný rozbor může usnadnit porozumění zachycených oslav. Seznamují se s podobou a společenskou funkcí oslav v letech normalizace. Svá zjištění mohou v navazující aktivitě porovnat s rodinnou nebo školní historií.",
      "verejna": "Máte rádi oslavy? Nechte se na jednu pozvat! Prozkoumejte slavnostní výzdobu, hledejte, kdo se zúčastnil, a odkryjte smysl celé oslavy. Že máte další otázky? To je jedině dobře!"
    },
    "trvani": 25,
    "obtiznost": "nízká",
    "funkce": [
      "lupa",
      "text",
      "svg",
      "kresleni"
    ],
    "pdf": {
      "doporucenyPostup": "jak-oslavovali-statni-svatek.pdf"
    },
    "uvodniObrazek": "jak-oslavovali-statni-svatek/pic-00-1280w.jpg",
    "id": 32,
    "color": {
      "rgb": {
        "r": 144,
        "g": 145,
        "b": 141
      },
      "hsv": {
        "h": 75,
        "s": 2.76,
        "v": 56.86
      }
    }
  },
  "slajd": [
    {
      "zadani": {
        "hlavni": "Prohlédněte si fotografii.",
        "rozsirujici": ""
      },
      "napoveda": {
        "aktivity": [
          "lupa"
        ],
        "text": "Při kliknutí levým tlačítkem do obrazu lupa přiblíží část obrazu ve výřezu."
      },
      "prameny": [
        "jak-oslavovali-statni-svatek/pic-00-1280w.jpg"
      ]
    },
    {
      "class": [
        "half-slide-previous"
      ],
      "zadani": {
        "hlavni": "Označte důležité prvky na fotografii a popište je.",
        "rozsirujici": ""
      },
      "napoveda": {
        "aktivity": [
          "svg"
        ],
        "text": "Tahem myši levým tlačítkem kreslíte do obrazu. Nakliknutím na nakreslený tvar pravým tlačítkem otevřete menu s nabídkou úkonů: změnit barvu tvaru, (T) doplnit textový komentář, (X) smazat nakliknutý objekt."
      },
      "svg": {
        "soubory": [
          {
            "id": "svg-1",
            "soubor": "jak-oslavovali-statni-svatek/pic-00-1280w.jpg",
            "funkce": [
              "text",
              "kresleni"
            ]
          }
        ]
      },
      "popisky": [
        "Radnice města Poličky vyzdobená u příležitosti státního svátku v roce 1980. Zdroj: Archiv Městské knihovny v Poličce"
      ]
    },
    {
      "class": [
        "half-slide-active"
      ],
      "zadani": {
        "hlavni": "Kdo se účastnil oslavy státního svátku?",
        "rozsirujici": ""
      },
      "napoveda": {
        "aktivity": [
          "text"
        ],
        "text": "Do boxu pro text zapisujete odpověď na otázku, nebo jiný komentář (dle zadání)."
      },
      "uzivatelskyText": {
        "otazky": [
          {
            "id": "text-1",
            "zadani": "",
            "instrukce": "Myslím si, že…",
            "minDelka": 10,
            "maxDelka": 400
          }
        ]
      }
    },
    {
      "zadani": {
        "hlavni": "Odpovězte na otázky.",
        "rozsirujici": ""
      },
      "napoveda": {
        "aktivity": [
          "text"
        ],
        "text": "Do boxu pro text zapisujete odpověď na otázku, nebo jiný komentář (dle zadání)."
      },
      "uzivatelskyText": {
        "otazky": [
          {
            "id": "text-2",
            "zadani": "Co bylo podle vás smyslem oslavy a proč se jí lidé účastnili?",
            "instrukce": "Myslím si, že…",
            "minDelka": 10,
            "maxDelka": 400
          },
          {
            "id": "text-3",
            "zadani": "Co byste se o fotografii nebo události chtěli ještě dozvědět?",
            "instrukce": "Myslím si, že…",
            "minDelka": 10,
            "maxDelka": 400
          }
        ]
      }
    }
  ]
}