{
  "cviceni": {
    "version": {
      "global": "<%= version %>",
      "content": 2
    },
    "katalog": [
      "test",
      "public"
    ],
    "language": "cs",
    "slug": "jak-vyobrazili-sve-vitezstvi-u-omdurmanu",
    "nazev": "Jak vyobrazili své vítězství u Omdurmánu?",
    "autor": [
      "Petr Sedlák"
    ],
    "klicovaSlova": {
      "rvp": [
        "kolonialismus"
      ],
      "koncept": [],
      "b4": [
        "dobové perspektivy"
      ],
      "historylab": [
        "hledáme klíčové detaily"
      ]
    },
    "casovaOsa": {
      "roky": [
        1898
      ],
      "epochy": [
        {
          "refId": "czech",
          "obdobi": []
        },
        {
          "refId": "world",
          "obdobi": [
            "Modernizace Evropy a rozmach koloniálních říší"
          ]
        }
      ]
    },
    "anotace": {
      "ucitel": "Cvičení se vztahuje k bitvě u súdánského Omdurmánu v září 1898, ve které britský koloniální sbor drtivě porazil místní kmeny. Žáci pracují s jediným pramenem, jímž je britský dobový obraz bitvy jednoho londýnského nakladatelství. Cvičením lze otevřít téma, proč mohla Velká Británie kolonizovat i odlehlé části světa a jak svoji expanzi viděli sami Britové.",
      "verejna": "Zadívejte se na monumentální výjev bitvy na březích Nilu z úplného konce 19. století. Zjistěte, kdo zde bojoval a proč vítězové vyhráli navzdory početní převaze nepřátel tak drtivě. Obraz vám může prozradit leccos o dobyvačném smýšlení vítězů."
    },
    "trvani": 10,
    "obtiznost": "nízká",
    "funkce": [
      "lupa",
      "cteni",
      "text",
      "svg",
      "znacky",
      "pretahovani"
    ],
    "pdf": {
      "doporucenyPostup": "jak-vyobrazili-sve-vitezstvi-u-omdurmanu.pdf"
    },
    "uvodniObrazek": "jak-vyobrazili-sve-vitezstvi-u-omdurmanu/pic-00-1280w.jpg",
    "id": 105,
    "color": {
      "rgb": {
        "r": 126,
        "g": 98,
        "b": 72
      },
      "hsv": {
        "h": 29,
        "s": 42.86,
        "v": 49.41
      }
    }
  },
  "slajd": [
    {
      "zadani": {
        "hlavni": "Prohlédněte si obraz.",
        "rozsirujici": ""
      },
      "napoveda": {
        "aktivity": [
          "lupa"
        ],
        "text": "Při kliknutí levým tlačítkem do obrazu lupa přiblíží část obrazu ve výřezu."
      },
      "prameny": [
        "jak-vyobrazili-sve-vitezstvi-u-omdurmanu/pic-00-1280w.jpg"
      ],
      "popisky": [
        "Vyobrazení vítězství britských vojáků a jejich spojenců nad domorodým vojskem u súdánského Omdurmánu v roce 1898, díky němuž Velká Británie dovršila kolonizaci rozsáhlých částí afrického kontinentu. A. Sutherland: Omdurman - First Battle - 6.30 a.m., 1898, nakladatelství G. W. Bacon Co. Ltd., Londýn. Zdroj: Wikimedia"
      ]
    },
    {
      "zadani": {
        "hlavni": "Přiřaďte do obrazu každé z bojujících stran alespoň tři charakteristiky jejího způsobu boje.",
        "rozsirujici": ""
      },
      "napoveda": {
        "aktivity": [
          "razeni",
          "svg"
        ],
        "text": "Pomocí drag and drop přesouvejte položky z nabídky do obrázku.<br> Do obrázku můžete také kreslit a zapisovat další informace."
      },
      "svg": {
        "pretahovani": {
          "id": "pretahovani-1",
          "items": [
            {
              "objekt": "disciplína v boji",
              "medium": "tag"
            },
            {
              "objekt": "řád",
              "medium": "tag"
            },
            {
              "objekt": "péče o zraněné",
              "medium": "tag"
            },
            {
              "objekt": "moderní zbraně",
              "medium": "tag"
            },
            {
              "objekt": "zastaralé zbraně",
              "medium": "tag"
            },
            {
              "objekt": "velké ztráty",
              "medium": "tag"
            },
            {
              "objekt": "chaos",
              "medium": "tag"
            },
            {
              "objekt": "obrana",
              "medium": "tag"
            },
            {
              "objekt": "útok",
              "medium": "tag"
            }
          ]
        },
        "soubory": [
          {
            "id": "svg-1",
            "soubor": "jak-vyobrazili-sve-vitezstvi-u-omdurmanu/pic-00-1280w.jpg",
            "funkce": [],
            "drop": true
          }
        ]
      },
      "popisky": [
        "A. Sutherland: Omdurman - First Battle - 6.30 a.m., 1898, nakladatelství G. W. Bacon Co. Ltd., Londýn. Zdroj: Wikimedia"
      ]
    },
    {
      "zadani": {
        "hlavni": "Co by vám pomohlo dozvědět se více o přístupu britských kolonizátorů k domorodcům?",
        "rozsirujici": ""
      },
      "napoveda": {
        "aktivity": [
          "text"
        ],
        "text": "Do boxu pro text zapisujete odpověď na otázku, nebo jiný komentář (dle zadání)."
      },
      "uzivatelskyText": {
        "layout": "velka-galerie",
        "galerie": [
          {
            "typ": "svg",
            "objekt": {
              "id": "svg-1-dup",
              "soubor": "jak-vyobrazili-sve-vitezstvi-u-omdurmanu/pic-00-1280w.jpg",
              "duplikovat": [
                "svg-1"
              ],
              "funkce": [
                "text",
                "znacky"
              ]
            },
            "popisek": "A. Sutherland: Omdurman - First Battle - 6.30 a.m., 1898, nakladatelství G. W. Bacon Co. Ltd., Londýn. Zdroj: Wikimedia"
          },
          {
            "typ": "text",
            "objekt": "Výběr a překlad z informací v nejspodnější části obrazu:<br>Průběh bitvy v titulcích: znovudobytí Súdánu - skvělé vítězství Sira Herberta Kitchenera - chalífova armáda zcela zničena - zabráno posvátné město dervišů - úžasná odvaha a disciplína britských, súdánských a egyptských vojáků - (nepřátelé) zkosení moderními zbraněmi - cesta pro nástup civilizace je volná."
          }
        ],
        "otazky": [
          {
            "id": "text-1",
            "zadani": "Jak je na obraze znázorněno britské vojsko v porovnání s nepřítelem?",
            "instrukce": "Myslím si, že…",
            "maxDelka": 400
          },
          {
            "id": "text-2",
            "zadani": "Co obraz vypovídá o přístupu britských kolonizátorů k domorodému obyvatelstvu?",
            "instrukce": "Myslím si, že…",
            "maxDelka": 400
          }
        ]
      }
    }
  ]
}
