{
  "cviceni": {
    "version": {
      "global": "<%= version %>",
      "content": 1
    },
    "katalog": [],
    "language": "en",
    "slug": "iwojima-en",
    "nazev": "Raising the Flag",
    "autor": [],
    "klicovaSlova": {
      "rvp": [],
      "koncept": [],
      "b4": [],
      "historylab": []
    },
    "casovaOsa": {
      "roky": [],
      "epochy": [
        {
          "refId": "czech",
          "obdobi": []
        },
        {
          "refId": "world",
          "obdobi": []
        }
      ]
    },
    "anotace": {
      "ucitel": "",
      "verejna": ""
    },
    "trvani": 0,
    "obtiznost": "",
    "funkce": [
      "lupa",
      "text",
      "svg",
      "znacky"
    ],
    "pdf": {
      "doporucenyPostup": "iwojima-en.pdf"
    },
    "uvodniObrazek": "iwojima-en/pic-01-1280w.jpg",
    "id": 9,
    "color": {
      "rgb": {
        "r": 110,
        "g": 140,
        "b": 151
      },
      "hsv": {
        "h": 196,
        "s": 27.15,
        "v": 59.22
      }
    }
  },
  "slajd": [
    {
      "class": [
        ""
      ],
      "zadani": {
        "hlavni": "Look at the photograph.",
        "rozsirujici": "Describe what the photo captures."
      },
      "napoveda": {
        "aktivity": [
          "lupa",
          "text"
        ],
        "text": ""
      },
      "prameny": [
        "iwojima-en/pic-00-1280w.jpg"
      ],
      "uzivatelskyText": {
        "otazky": [
          {
            "id": "text-1",
            "instrukce": "Description of the photograph…",
            "minDelka": 0,
            "maxDelka": 400
          }
        ]
      }
    },
    {
      "class": [
        ""
      ],
      "zadani": {
        "hlavni": "Look at the second photograph.",
        "rozsirujici": "What does this photo capture?"
      },
      "napoveda": {
        "aktivity": [
          "lupa",
          "text"
        ],
        "text": ""
      },
      "prameny": [
        "iwojima-en/pic-01-1280w.jpg"
      ],
      "uzivatelskyText": {
        "otazky": [
          {
            "id": "text-1",
            "instrukce": "Description of the photograph…",
            "minDelka": 0,
            "maxDelka": 400
          }
        ]
      }
    },
    {
      "class": [
        "half-slide-previous"
      ],
      "zadani": {
        "hlavni": "Compare the photos. Highlight and describe the differences.",
        "rozsirujici": "Use a blue dot and a caption to mark the components in the photograph that are the same or similar. Use a red dot and a caption to mark the components that are different."
      },
      "napoveda": {
        "aktivity": [
          "svg"
        ],
        "text": "Create a dot with left-clicking on the picture below. Right-clicking on the picture opens a menu of operations. A blue dot for a similarity. A red dot for a difference. (T) Caption. (X) Clear the object that you’ve clicked on."
      },
      "svg": {
        "soubory": [
          {
            "id": "svg-0",
            "soubor": "iwojima-en/pic-00-1024w.jpg",
            "funkce": [
              "text",
              "znacky"
            ]
          },
          {
            "id": "svg-1",
            "soubor": "iwojima-en/pic-01-1024w.jpg",
            "funkce": [
              "text",
              "znacky"
            ]
          }
        ]
      },
      "popisky": [
        "Raising the American flag in Iwo Jima, 23.2.1945, taken by Joe Rosenthal.",
        "Marine Corps War Memorial in Arlington."
      ]
    },
    {
      "class": [
        "half-slide-active"
      ],
      "zadani": {
        "hlavni": "Why was the memorial built according to the photograph?",
        "rozsirujici": ""
      },
      "napoveda": {
        "aktivity": [
          "text"
        ],
        "text": ""
      },
      "uzivatelskyText": {
        "otazky": [
          {
            "id": "text-2",
            "instrukce": "I think that…",
            "minDelka": 0,
            "maxDelka": 400
          },
          {
            "id": "text-3",
            "zadani": "Describe what message the photograph offers and what message the memorial offers.",
            "instrukce": "I think that…",
            "minDelka": 0,
            "maxDelka": 400
          },
          {
            "id": "text-4",
            "zadani": "How are their ways of depicting the event different?",
            "instrukce": "I think that…",
            "minDelka": 0,
            "maxDelka": 400
          }
        ]
      }
    }
  ]
}